Civitas Meeting
…
## # A tibble: 97 x 5
##    Race  Sex   `At Fault`  year prop_at_fault
##    <chr> <chr> <chr>      <dbl>         <dbl>
##  1 B     M     No          2014         0.476
##  2 W     M     No          2014         0.596
##  3 W     F     Yes         2014         0.438
##  4 H     F     No          2014         0.45 
##  5 B     M     Yes         2014         0.524
##  6 W     M     Yes         2014         0.404
##  7 B     F     Yes         2013         1    
##  8 B     F     Yes         2014         0.508
##  9 A     M     Yes         2014         0.506
## 10 W     F     No          2014         0.562
## # ... with 87 more rows
…
